[
	{
		"id": "1",
		"phase": 1,
		"type": "multiple",
		"question": "C'est quoi le pays d'origine du Tango",
		"propositions": [
			"Espagne",
			"Argentine",
			"Brézil",
			"Italie"
		],
		"answer": "1",
		"points": 2
	},
	{
		"id": "2",
		"phase": 1,
		"type": "multiple",
		"question": "Quelle est la capitale de l'Australie ?",
		"propositions": [
			"Sydney",
			"Melbourne",
			"Canberra"
		],
		"image": "qaustralie.png",
		"answer": 2,
		"points": 2
	},
	{
		"id": "3",
		"phase": 1,
		"type": "multiple",
		"question": "lequel de ces noms de chanson n'est PAS celui de balti",
		"image": "balti.jpg",
		"propositions": [
			"Kaboul",
			"Maztoula",
			"Hazin",
			"Sokran"
		],
		"answer": 2,
		"points": 2
	},
	{
		"id": "4",
		"phase": 1,
		"type": "multiple",
		"question": "Selon Hamdi l3ou9, chkounou l7ayawen li yanta7 ?",
		"image": "l3ou9.png",
		"propositions": [
			"Se7liya",
			"Babaghayo",
			"me3za",
			"lfiil"
		],
		"answer": 1,
		"points": 2
	},
	{
		"id": "5",
		"phase": 1,
		"type": "multiple",
		"question": "Dans le générique de Choufli Hal combien de fois ils disent 'choufli 7al' ? ( à 5 près ) ",
		"image": "chouflihal.png",
		"propositions": [
			"20",
			"40",
			"30",
			"50"
		],
		"answer": 2,
		"points": 2
	},
	{
		"id": "6",
		"phase": 1,
		"type": "multiple",
		"question": "il Rappeur il mawhba 'Samash' win yoskon :",
		"propositions": [
			"Manar wo Sidi bou",
			"Zahrouni mamba3 il asatir",
			"Sidi 7ssine",
			"9irwen"
		],
		"image": "samach.jpg",
		"answer": 0,
		"points": 2
	},
	{
		"id": "7",
		"phase": 1,
		"type": "multiple",
		"question": "la femme qui a quitte son emploi pour gagner six chiffres par mois en jouant le rôle de chien sur OnlyFans, elle etait : ",
		"propositions": [
			"Mannequin",
			"Opticienne",
			"Infirmiere",
			"Serveuse"
		],
		"image": "q2.jpg",
		"answer": 1,
		"points": 2
	},
	{
		"id": "8",
		"phase": 1,
		"type": "multiple",
		"question": "Décrivez ce que vous voyez",
		"propositions": [
			"Deux Femme",
			"Numéro 1 est un Homme ",
			"Numéro 2 est un Homme",
			"Deux Hommes"
		],
		"image": "q15.jpg",
		"answer": 3,
		"points": 2
	},
	{
		"id": "9",
		"phase": 1,
		"type": "multiple",
		"question": "7oumet Rafa dima ghabra hiya ",
		"propositions": [
			"Colombia",
			"USA",
			"Beb jdid",
			"Toronto"
		],
		"image": "rafa.png",
		"answer": 3,
		"points": 2
	},
	{
		"id": "10",
		"phase": 1,
		"type": "multiple",
		"question": "Enehi mil 8néyét héthom mouch min 8néyét Michael jackson",
		"propositions": [
			"Lyoum nhar s5oun Michael fi kalsoun",
			"toupi snoupi Michael jandoubi",
			"Erebouki Erebouki",
			"9arwi 7ar Michael ya Mighyar"
		],
		"image": "michael.png",
		"answer": 3,
		"points": 2
	},
	{
		"id": "X1",
		"phase": 1,
		"type": "multiple",
		"question": "Nommez ce fétiche (Axillism)",
		"propositions": [
			"le fétiche de porter une couche et de faire semblant d'être un bébé",
			"le désir d'avoir des relations sexuelles avec l'aisselle de quelqu'un",
			"est l'attrait pour les objets inanimés"
		],
		"answer": 1,
		"points": 3
	},
	{
		"id": "X2",
		"phase": 1,
		"type": "multiple",
		"question": "Quel pays a un parc à pénis?",
		"propositions": [
			"Japon",
			"South korea",
			"philippine"
		],
		"answer": 1,
		"points": 3
	},
	{
		"id": "X3",
		"type": "multiple",
		"question": "à quelle vitesse le sperme nage ?",
		"propositions": [
			"0.3 cm par heure",
			"0.6 cm par heure",
			"1.13 cm par heure",
			"1km par heure"
		],
		"answer": 0,
		"points": 3
	},
	{
		"id": "X4",
		"phase": 1,
		"type": "multiple",
		"question": "Si vous aviez Psygophillia, qu'est-ce qui vous exciterait?",
		"propositions": [
			"Cheveux longs des parties intime",
			"Teddy bears",
			"Contact avec buttocks"
		],
		"answer": 2,
		"points": 3
	},
	{
		"id": "X5",
		"phase": 1,
		"type": "multiple",
		"question": "Lequel de ces noms de livres pour enfants que nous avons inventés?",
		"propositions": [
			"Would You Like To Play With My Ass?",
			"Mary Has a Little Pussy",
			"My Smelly Ass ",
			"The Playful Pink Pussy"
		],
		"answer": 3,
		"points": 3
	},
	{
		"id": "X6",
		"phase": 1,
		"type": "multiple",
		"question": "Lequel de ces termes ne signifie PAS BDSM",
		"propositions": [
			"Domination ",
			"Submission ",
			"Discipline ",
			"Master "
		],
		"answer": 3,
		"points": 3
	},
	{
		"id": "X7",
		"phase": 1,
		"type": "multiple",
		"question": "l'intro Hetha Mta3 Chnawa",
		"propositions": [
			"REDTUBE",
			"PORNHUB",
			"XNXX"
		],
		"answer": 1,
		"points": 3
	},
	{
		"id": "X8",
		"phase": 1,
		"type": "multiple",
		"question": "De haut en bas, ce qui vient en premier dans le vagin",
		"propositions": [
			"Vagin",
			"Urètre",
			"coccyx",
			"Périnée"
		],
		"answer": 2,
		"points": 3
	},
	{
		"id": "X9",
		"phase": 1,
		"type": "multiple",
		"question": "ç'est quoi le Coccyx en arabe",
		"propositions": [
			"عجان",
			"الإحليل",
			"العصعص",
			"بظر"
		],
		"answer": 2,
		"points": 3
	},
	{
		"id": "X10",
		"phase": 1,
		"type": "multiple",
		"question": "'Bonita' bil espagnol chma3neha",
		"propositions": [
			"Jamil",
			"Jamila",
			"Mo5rat",
			"Rkeybou fer8a"
		],
		"answer": 1,
		"points": 3
	},
	{
		"id": "1",
		"phase": 2,
		"question": "Houssem Na9el Li Dar Jdida 3ando",
		"propositions": [
			"12 Semaines",
			"15 Semaines"
		],
		"answer": 1,
		"points": 5
	},
	{
		"id": "2",
		"phase": 2,
		"question": "Karhba Li Hazet Amine o Imen lil 3ers hiya Mercedes",
		"propositions": [
			"GLE",
			"GLC"
		],
		"image": "GLC.png",
		"answer": 1,
		"points": 5
	},
	{
		"id": "3",
		"phase": 2,
		"question": "9adech min chhar fil 3am fih 30 Youm",
		"propositions": [
			"5",
			"11"
		],
		"answer": 1,
		"points": 5
	},
	{
		"id": "4",
		"phase": 2,
		"question": "a limité les déplacements à destination et en provenance du pays",
		"propositions": [
			"Hitler",
			"Trump",
			"les Deux"
		],
		"answer": 2,
		"points": 5
	},
	{
		"id": "5",
		"phase": 2,
		"question": "il Manar City B3id Ala Dar Imen 9adeh",
		"propositions": [
			"14 Minutes a Pied",
			"24 Minutes a Pied"
		],
		"answer": 0,
		"points": 5
	},
	{
		"id": "6",
		"phase": 2,
		"question": "Noumro Adresse dari Hethi",
		"propositions": [
			"9",
			"6"
		],
		"answer": 1,
		"points": 5
	},
	{
		"id": "7",
		"phase": 2,
		"question": "Aymen Saheb imene 3osso ?",
		"propositions": [
			"5fif",
			"Rzine"
		],
		"answer": 1,
		"points": 5
	},
	{
		"id": "8",
		"phase": 2,
		"question": "Ahmed ki yetkayef barcha",
		"propositions": [
			"Yched itelifoun",
			"Yched fi raby"
		],
		"answer": 0,
		"points": 5
	},
	{
		"id": "9",
		"phase": 2,
		"question": "Fi Tazarka, Chkoun Taych la3rous fil Piscine",
		"propositions": [
			"Houssem",
			"Jlon"
		],
		"answer": 1,
		"points": 5
	},
	{
		"id": "10",
		"phase": 2,
		"question": "Fi Tazarka La3rous chsarlou ?",
		"propositions": [
			"Skerr",
			"Met bichrab"
		],
		"answer": 1,
		"points": 5
	},
	{
		"id": "104",
		"phase": 2,
		"question": "peux-tu deviner le nom de la chanson ? :  ",
		"propositions": [
			"Goultrah Sound System - bled e5r zman",
			" Goultrah Sound System - Jondi",
			"Goultrah Sound System - chkoun ken igoul "
		],
		"answer": 1,
		"points": 5
	},
	{
		"id": "105",
		"phase": 2,
		"question": "qui est l'artiste de cette chanson:  ",
		"propositions": [
			"Amadeus Mozart",
			"Johann Sebastian Bach",
			"Antonio vivaldi"
		],
		"answer": 2,
		"points": 5
	},
	{
		"id": "106",
		"phase": 2,
		"question": "qui est l'artiste de cette chanson:  ",
		"propositions": [
			" Johann Sebastian Bach",
			"Ludwig van Beethoven ",
			"Amadeus Mozart"
		],
		"answer": 1,
		"points": 5
	},
	{
		"id": "107",
		"phase": 2,
		"question": "qui est l'artiste de cette chanson:  ",
		"propositions": [
			"The mentalist OST",
			"Ludwig van Beethoven ",
			"Johann Sebastian Bach"
		],
		"answer": 2,
		"points": 5
	},
	{
		"id": "108",
		"phase": 2,
		"question": "c'est Quoi le genre cette chanson:  ",
		"propositions": [
			"Melodic House",
			"Trance",
			"Techno"
		],
		"answer": 1,
		"points": 5
	},
	{
		"id": "109",
		"phase": 2,
		"question": "c'est Quoi le genre cette chanson:  ",
		"propositions": [
			"Dance/Electronic",
			"Trance",
			"Deep House",
			"Chillout"
		],
		"answer": 0,
		"points": 5
	},
	{
		"id": "110",
		"phase": 2,
		"question": "c'est Quoi le genre cette chanson:  ",
		"propositions": [
			"Melodic Trance",
			"Progressive Trance",
			"Psy Trance"
		],
		"answer": 2,
		"points": 5
	},
	{
		"id": "101",
		"phase": 1,
		"type": "multiple",
		"question": "Quel est le nom du demi-frère de Phoebe ",
		"propositions": [
			"Fred Jr ",
			"Frank Jr ",
			"Phil Jr"
		],
		"answer": 1,
		"image": "frankjr.png",
		"points": 5
	},
	{
		"id": "102",
		"phase": 1,
		"type": "multiple",
		"question": "Qui surprend Janice en train d'embrasser son ex-mari ?",
		"propositions": [
			"Joey",
			"Monica",
			"Chandler"
		],
		"image": "janice.png",
		"answer": 0,
		"points": 5
	},
	{
		"id": "103",
		"phase": 1,
		"type": "multiple",
		"question": "Avec quoi Phoebe a-t-elle taché sa robe dans E2 S3 . ?",
		"propositions": [
			"Du vin",
			"Du houmous",
			"Du gâteau",
			"Sauce Algérienne"
		],
		"image": "phebe.png",
		"answer": 1,
		"points": 5
	},
	{
		"id": "104",
		"phase": 1,
		"type": "multiple",
		"question": "C'est Quoi le nom de la fille Que Ross A Rencontré dans le mariage de Monica et chandler",
		"propositions": [
			"Carol",
			"Emily",
			"Mona"
		],
		"answer": 2,
		"image": "ross.png",
		"points": 5
	},
	{
		"id": "105",
		"phase": 1,
		"type": "multiple",
		"question": "Ross a un fantasme : voir Rachel en",
		"propositions": [
			"Cendrillon ",
			"Princesse Leia",
			"Lara Croft"
		],
		"answer": 1,
		"image": "ross.png",
		"points": 5
	},
	{
		"id": "201",
		"phase": 1,
		"type": "multiple",
		"question": "Quel est le surnom donné à Robin dans la série ?",
		"propositions": [
			"Sparkles",
			"Red",
			"Scherbatsky"  
		],
		"image": "robin.jpg",
		"answer": 0,
		"points": 5
	},
	{
		"id": "202",
		"phase": 1,
		"type": "multiple",
		"question": "Quel est le nom de la société de Ted Mosby ?",
		"propositions": [
			"Mosby Designs",
			"Mosby Architecture", 
			"Mosbius Designs", 
			"Mosbius Architecture"  
		],
		"image": "mosby.png",
		"answer": 2,
		"points": 5
	},
	{
		"id": "203",
		"phase": 1,
		"type": "multiple",
		"question": "Qui a interviewé Barney Stinson dans son CV",
		"propositions": [
			"Ted",
			"Barney ", 
			"Charley"   
		],
		"image": "barney.png",
		"answer": 1,
		"points": 5
	},
	{
		"id": "204",
		"phase": 1,
		"type": "multiple",
		"question": "Comment s'appelle la mère de Robin, qui est une célèbre chanteuse canadienne ?",
		"propositions": [
			"Genevieve Scherbatsky",
			"Cheryl Scherbatsky", 
			"Mary Scherbatsky" 
		],
		"image": "robin.png",
		"answer": 0,
		"points": 5
	},
	{
		"id": "205",
		"phase": 1,
		"type": "multiple",
		"question": "Dans l'épisode intitulé 'The Pineapple Incident', Ted est sorti avec une fille appelée  ",
		"propositions": [
			"Stella ",
			"karen",
			"Turdy"  
		],
		"answer": 2,
		"image": "mosby.png",
		"points": 5
	},
	{
		"id": "301 HIMYM Rapide 5pts",
		"phase": 2,
		"type": "multiple",
		"question": "Dans quel bar les personnages de HIMYM se retrouvent-ils fréquemment ?",
		"propositions": [
			"Puzzles ",
			"MacLaren's",
			"Hoser Hut"  
		],
		"answer": 1,
		"image": "mclarens.png",
		"points": 5
	},
	{
		"id": "302",
		"phase": 2,
		"type": "multiple",
		"question": "Comment s'appelle le café où les personnages de Friends se retrouvent souvent ?",
		"propositions": [
			"Central Café",
			"Central Brew",
			"Central Perk"
		],
		"answer": 2,
		"image": "centralperk.png",
		"points": 5
	},
	{
		"id": "303",
		"phase": 2,
		"type": "multiple",
		"question": "Quel est le métier de Chandler Bing dans Friends ?",
		"propositions": [
			"Acteur",
			"Analyste informatique",
			"Serveur"
		],
		"answer": 1,
		"image": "chendler.png",
		"points": 5
	},
	{
		"id": "304",
		"phase": 2,
		"type": "multiple",
		"question": " Quel était le nom complet de la mère de Ted Mosby,?",
		"propositions": [
			"Tracy McConnell",
			"Tracy Mosby",
			"Tracy Scherbatsky" 
		],
		"answer": 0,
		"image": "mosby.png",
		"points": 5
	},
	{
		"id": "305",
		"phase": 2,
		"type": "multiple",
		"question": "Quel instrument de musique joue Robin ?",
		"propositions": [
			"Guitare",
			"Batterie",
			"Trombone"
		],
		"answer": 1,
		"image": "robin.jpg",
		"points": 5
	}
]